<?xml version="1.0" encoding="UTF-8" standalone="no"?>
<!-- Created with Inkscape (http://www.inkscape.org/) -->

<svg
   xmlns:dc="http://purl.org/dc/elements/1.1/"
   xmlns:cc="http://creativecommons.org/ns#"
   xmlns:rdf="http://www.w3.org/1999/02/22-rdf-syntax-ns#"
   xmlns:svg="http://www.w3.org/2000/svg"
   xmlns="http://www.w3.org/2000/svg"
   xmlns:sodipodi="http://sodipodi.sourceforge.net/DTD/sodipodi-0.dtd"
   xmlns:inkscape="http://www.inkscape.org/namespaces/inkscape"
   width="210mm"
   height="297mm"
   viewBox="0 0 210 297"
   version="1.1"
   id="svg8"
   inkscape:version="0.92.5 (2060ec1f9f, 2020-04-08)"
   sodipodi:docname="icon.svg">
  <defs
     id="defs2" />
  <sodipodi:namedview
     id="base"
     pagecolor="#ffffff"
     bordercolor="#666666"
     borderopacity="1.0"
     inkscape:pageopacity="0.0"
     inkscape:pageshadow="2"
     inkscape:zoom="0.49497475"
     inkscape:cx="404.72334"
     inkscape:cy="586.032"
     inkscape:document-units="mm"
     inkscape:current-layer="layer1"
     showgrid="false"
     showguides="true"
     inkscape:guide-bbox="true"
     inkscape:window-width="1920"
     inkscape:window-height="1015"
     inkscape:window-x="0"
     inkscape:window-y="0"
     inkscape:window-maximized="1">
    <inkscape:grid
       type="xygrid"
       id="grid848" />
  </sodipodi:namedview>
  <metadata
     id="metadata5">
    <rdf:RDF>
      <cc:Work
         rdf:about="">
        <dc:format>image/svg+xml</dc:format>
        <dc:type
           rdf:resource="http://purl.org/dc/dcmitype/StillImage" />
        <dc:title></dc:title>
      </cc:Work>
    </rdf:RDF>
  </metadata>
  <g
     inkscape:label="Layer 1"
     inkscape:groupmode="layer"
     id="layer1">
    <circle
       style="fill:none;stroke:#000e00;stroke-width:3.01496649;stroke-miterlimit:4;stroke-dasharray:none;stroke-opacity:1"
       id="path815"
       cx="105.37985"
       cy="134.87"
       r="55.092545" />
    <rect
       style="fill:#ffffff;fill-opacity:1;stroke:#000e00;stroke-width:3.01999998;stroke-miterlimit:4;stroke-dasharray:none;stroke-opacity:1"
       id="rect817"
       width="16.570711"
       height="16.83798"
       x="96.146614"
       y="71.359673" />
    <rect
       style="fill:#ffff79;fill-opacity:1;stroke:#000e00;stroke-width:3.01999998;stroke-miterlimit:4;stroke-dasharray:none;stroke-opacity:1"
       id="rect817-3"
       width="16.570711"
       height="16.83798"
       x="95.94976"
       y="181.94048" />
    <rect
       style="fill:#ffff79;fill-opacity:1;stroke:#000e00;stroke-width:3.01999998;stroke-miterlimit:4;stroke-dasharray:none;stroke-opacity:1"
       id="rect817-6"
       width="16.570711"
       height="16.83798"
       x="150.8125"
       y="126.70368"
       inkscape:transform-center-x="0.75595238"
       inkscape:transform-center-y="0.56696429" />
    <rect
       style="fill:#ca0000;fill-opacity:1;stroke:#000e00;stroke-width:3.01999998;stroke-miterlimit:4;stroke-dasharray:none;stroke-opacity:1"
       id="rect817-7"
       width="16.570711"
       height="16.83798"
       x="41.637619"
       y="126.70368" />
    <rect
       style="fill:#ffffff;fill-opacity:1;stroke:#000e00;stroke-width:3.01999998;stroke-miterlimit:4;stroke-dasharray:none;stroke-opacity:1"
       id="rect817-5"
       width="16.570711"
       height="16.83798"
       x="57.104527"
       y="89.765533" />
    <rect
       style="fill:#00ca00;fill-opacity:1;stroke:#000e00;stroke-width:3.01999998;stroke-miterlimit:4;stroke-dasharray:none;stroke-opacity:1"
       id="rect817-35"
       width="16.570711"
       height="16.83798"
       x="137.23547"
       y="89.765533" />
    <rect
       style="fill:#ffff79;fill-opacity:1;stroke:#000e00;stroke-width:3.01999998;stroke-miterlimit:4;stroke-dasharray:none;stroke-opacity:1"
       id="rect817-62"
       width="16.570711"
       height="16.83798"
       x="137.58333"
       y="161.86449" />
    <rect
       style="fill:#ffff79;fill-opacity:1;stroke:#000e00;stroke-width:3.01999998;stroke-miterlimit:4;stroke-dasharray:none;stroke-opacity:1"
       id="rect817-9"
       width="16.570711"
       height="16.83798"
       x="56.992901"
       y="162.0289" />
  </g>
</svg>
